Exploring WDI PISA mathematics data with the wdiexplorer package. • wdiexplorer
…
To complement this visual summary, we introduce a second step:
calculating the total number of missing entries per country.

index = "LO.PISA.MAT"

pisa_data |>
  dplyr::select(country, income, year, tidyselect::all_of(index)) |>
  dplyr::group_by(income, country) |>
  naniar::miss_var_summary() |>
  dplyr::filter(variable == index) |>
  dplyr::arrange(desc(n_miss))
#> # A tibble: 217 × 5
#> # Groups:   income, country [217]
#>    country             income              variable    n_miss pct_miss
#>    <chr>               <chr>               <chr>        <int>    <num>
#>  1 Afghanistan         Low income          LO.PISA.MAT     71      100
#>  2 American Samoa      High income         LO.PISA.MAT     71      100
#>  3 Andorra             High income         LO.PISA.MAT     71      100
#>  4 Angola              Lower middle income LO.PISA.MAT     71      100
#>  5 Antigua and Barbuda High income         LO.PISA.MAT     71      100
#>  6 Armenia             Upper middle income LO.PISA.MAT     71      100
#>  7 Aruba               High income         LO.PISA.MAT     71      100
#>  8 Bahamas, The        High income         LO.PISA.MAT     71      100
#>  9 Bahrain             High income         LO.PISA.MAT     71      100
#> 10 Bangladesh          Lower middle income LO.PISA.MAT     71      100
#> # ℹ 207 more rows
…
#> 
#>  The 9 countries listed below have one available data point and were excluded:
#>  Algeria
#> - Belarus
#> - Bosnia and Herzegovina
#> - Brunei Darussalam
#> - Mauritius
#> - Morocco
#> - Philippines
#> - Saudi Arabia
#> - Ukraine
#> 
#> The 64 year(s) listed below had no available data and were excluded:
#>  1960,   1961,   1962,   1963,   1964,   1965,   1966,   1967,   1968,   1969,   1970,   1971,   1972,   1973,   1974,   1975,   1976,   1977,   1978,   1979,   1980,   1981,   1982,   1983,   1984,   1985,   1986,   1987,   1988,   1989,   1990,   1991,   1992,   1993,   1994,   1995,   1996,   1997,   1998,   1999,   2001,   2002,   2004,   2005,   2007,   2008,   2010,   2011,   2013,   2014,   2016,   2017,   2019,   2020,   2021,   2022,   2023,   2024,   2025,   2026,   2027,   2028,   2029,   2030
#> # A tibble: 525 × 13
#>    country    iso2c iso3c  year LO.PISA.MAT status lastupdated region    capital
#>    <chr>      <chr> <chr> <int>       <dbl> <chr>  <chr>       <chr>     <chr>  
#>  1 Albania    AL    ALB    2000        381  ""     2024-06-25  Europe &… Tirane 
#>  2 Argentina  AR    ARG    2000        388  ""     2024-06-25  Latin Am… Buenos…
#>  3 Australia  AU    AUS    2000        533  ""     2024-06-25  East Asi… Canber…
#>  4 Austria    AT    AUT    2000        502. ""     2024-06-25  Europe &… Vienna 
#>  5 Azerbaijan AZ    AZE    2000         NA  ""     2024-06-25  Europe &… Baku   
#>  6 Belgium    BE    BEL    2000        520  ""     2024-06-25  Europe &… Brusse…
#>  7 Brazil     BR    BRA    2000        334  ""     2024-06-25  Latin Am… Brasil…
#>  8 Bulgaria   BG    BGR    2000        430  ""     2024-06-25  Europe &… Sofia  
#>  9 Canada     CA    CAN    2000        533  ""     2024-06-25  North Am… Ottawa 
#> 10 Chile      CL    CHL    2000        384  ""     2024-06-25  Latin Am… Santia…
#> # ℹ 515 more rows
#> # ℹ 4 more variables: longitude <chr>, latitude <chr>, income <chr>,
#> #   lending <chr>
…
